inst,actual,predicted,error,prediction
1,4:NUC,1:CYT,+,0.414
2,4:NUC,4:NUC,,0.442
3,4:NUC,1:CYT,+,0.414
4,4:NUC,4:NUC,,0.399
5,4:NUC,1:CYT,+,0.402
6,4:NUC,4:NUC,,0.362
7,4:NUC,1:CYT,+,0.406
8,4:NUC,4:NUC,,0.434
9,4:NUC,4:NUC,,0.413
10,4:NUC,1:CYT,+,0.396
11,4:NUC,1:CYT,+,0.391
12,4:NUC,4:NUC,,0.431
13,4:NUC,2:ME3,+,0.37
14,4:NUC,4:NUC,,0.289
15,4:NUC,4:NUC,,0.394
16,4:NUC,1:CYT,+,0.396
17,4:NUC,4:NUC,,0.445
18,4:NUC,4:NUC,,0.398
19,4:NUC,1:CYT,+,0.4
20,4:NUC,4:NUC,,0.434
21,4:NUC,1:CYT,+,0.414
22,4:NUC,4:NUC,,0.445
23,4:NUC,4:NUC,,0.382
24,4:NUC,4:NUC,,0.427
25,4:NUC,1:CYT,+,0.42
26,4:NUC,1:CYT,+,0.402
27,4:NUC,4:NUC,,0.424
28,4:NUC,1:CYT,+,0.391
29,4:NUC,4:NUC,,0.376
30,4:NUC,2:ME3,+,0.35
31,4:NUC,1:CYT,+,0.414
32,4:NUC,4:NUC,,0.396
33,4:NUC,4:NUC,,0.385
34,4:NUC,4:NUC,,0.419
35,4:NUC,1:CYT,+,0.416
36,4:NUC,1:CYT,+,0.407
37,4:NUC,3:MIT,+,0.339
38,4:NUC,4:NUC,,0.355
39,4:NUC,4:NUC,,0.399
40,4:NUC,4:NUC,,0.4
41,4:NUC,4:NUC,,0.44
42,4:NUC,1:CYT,+,0.418
43,4:NUC,4:NUC,,0.447
44,1:CYT,1:CYT,,0.41
45,1:CYT,1:CYT,,0.4
46,1:CYT,1:CYT,,0.792
47,1:CYT,4:NUC,+,0.402
48,1:CYT,4:NUC,+,0.423
49,1:CYT,1:CYT,,0.789
50,1:CYT,1:CYT,,0.402
51,1:CYT,4:NUC,+,0.453
52,1:CYT,1:CYT,,0.4
53,1:CYT,4:NUC,+,0.451
54,1:CYT,1:CYT,,0.413
55,1:CYT,3:MIT,+,0.347
56,1:CYT,4:NUC,+,0.344
57,1:CYT,1:CYT,,0.403
58,1:CYT,1:CYT,,0.407
59,1:CYT,1:CYT,,0.408
60,1:CYT,1:CYT,,0.411
61,1:CYT,1:CYT,,0.412
62,1:CYT,1:CYT,,0.402
63,1:CYT,4:NUC,+,0.44
64,1:CYT,1:CYT,,0.39
65,1:CYT,1:CYT,,0.405
66,1:CYT,1:CYT,,0.387
67,1:CYT,4:NUC,+,0.418
68,1:CYT,1:CYT,,0.405
69,1:CYT,1:CYT,,0.335
70,1:CYT,1:CYT,,0.401
71,1:CYT,1:CYT,,0.429
72,1:CYT,1:CYT,,0.403
73,1:CYT,4:NUC,+,0.426
74,1:CYT,1:CYT,,0.412
75,1:CYT,1:CYT,,0.423
76,1:CYT,1:CYT,,0.349
77,1:CYT,1:CYT,,0.411
78,1:CYT,1:CYT,,0.42
79,1:CYT,1:CYT,,0.41
80,1:CYT,1:CYT,,0.421
81,1:CYT,1:CYT,,0.402
82,1:CYT,1:CYT,,0.401
83,1:CYT,1:CYT,,0.368
84,1:CYT,1:CYT,,0.416
85,1:CYT,3:MIT,+,0.334
86,1:CYT,1:CYT,,0.424
87,1:CYT,1:CYT,,0.394
88,1:CYT,4:NUC,+,0.425
89,1:CYT,3:MIT,+,0.332
90,1:CYT,1:CYT,,0.76
91,2:ME3,2:ME3,,0.353
92,2:ME3,2:ME3,,0.325
93,2:ME3,2:ME3,,0.34
94,2:ME3,2:ME3,,0.362
95,2:ME3,2:ME3,,0.348
96,2:ME3,2:ME3,,0.36
97,2:ME3,2:ME3,,0.322
98,2:ME3,2:ME3,,0.366
99,2:ME3,2:ME3,,0.363
100,2:ME3,2:ME3,,0.368
101,2:ME3,2:ME3,,0.368
102,2:ME3,2:ME3,,0.394
103,2:ME3,2:ME3,,0.395
104,2:ME3,2:ME3,,0.309
105,2:ME3,2:ME3,,0.358
106,2:ME3,2:ME3,,0.31
107,3:MIT,1:CYT,+,0.388
108,3:MIT,3:MIT,,0.358
109,3:MIT,1:CYT,+,0.392
110,3:MIT,1:CYT,+,0.332
111,3:MIT,3:MIT,,0.337
112,3:MIT,3:MIT,,0.321
113,3:MIT,1:CYT,+,0.41
114,3:MIT,1:CYT,+,0.416
115,3:MIT,1:CYT,+,0.408
116,3:MIT,1:CYT,+,0.334
117,3:MIT,1:CYT,+,0.396
118,3:MIT,1:CYT,+,0.4
119,3:MIT,3:MIT,,0.329
120,3:MIT,1:CYT,+,0.407
121,3:MIT,3:MIT,,0.332
122,3:MIT,3:MIT,,0.341
123,3:MIT,3:MIT,,0.355
124,3:MIT,4:NUC,+,0.409
125,3:MIT,3:MIT,,0.325
126,3:MIT,3:MIT,,0.35
127,3:MIT,2:ME3,+,0.328
128,3:MIT,4:NUC,+,0.333
129,3:MIT,1:CYT,+,0.408
130,3:MIT,3:MIT,,0.331
1,4:NUC,1:CYT,+,0.418
2,4:NUC,1:CYT,+,0.406
3,4:NUC,1:CYT,+,0.411
4,4:NUC,1:CYT,+,0.366
5,4:NUC,4:NUC,,0.388
6,4:NUC,1:CYT,+,0.412
7,4:NUC,1:CYT,+,0.391
8,4:NUC,1:CYT,+,0.384
9,4:NUC,4:NUC,,0.427
10,4:NUC,1:CYT,+,0.374
11,4:NUC,1:CYT,+,0.404
12,4:NUC,4:NUC,,0.394
13,4:NUC,4:NUC,,0.415
14,4:NUC,3:MIT,+,0.336
15,4:NUC,1:CYT,+,0.419
16,4:NUC,4:NUC,,0.445
17,4:NUC,1:CYT,+,0.347
18,4:NUC,4:NUC,,0.419
19,4:NUC,4:NUC,,0.441
20,4:NUC,3:MIT,+,0.336
21,4:NUC,4:NUC,,0.413
22,4:NUC,1:CYT,+,0.405
23,4:NUC,4:NUC,,0.424
24,4:NUC,4:NUC,,0.429
25,4:NUC,1:CYT,+,0.412
26,4:NUC,4:NUC,,0.441
27,4:NUC,4:NUC,,0.429
28,4:NUC,2:ME3,+,0.337
29,4:NUC,4:NUC,,0.437
30,4:NUC,1:CYT,+,0.408
31,4:NUC,4:NUC,,0.434
32,4:NUC,1:CYT,+,0.34
33,4:NUC,4:NUC,,0.434
34,4:NUC,1:CYT,+,0.434
35,4:NUC,4:NUC,,0.432
36,4:NUC,4:NUC,,0.421
37,4:NUC,2:ME3,+,0.316
38,4:NUC,1:CYT,+,0.416
39,4:NUC,4:NUC,,0.431
40,4:NUC,1:CYT,+,0.355
41,4:NUC,1:CYT,+,0.4
42,4:NUC,4:NUC,,0.43
43,4:NUC,4:NUC,,0.429
44,1:CYT,1:CYT,,0.42
45,1:CYT,1:CYT,,0.75
46,1:CYT,1:CYT,,0.428
47,1:CYT,1:CYT,,0.42
48,1:CYT,1:CYT,,0.747
49,1:CYT,1:CYT,,0.424
50,1:CYT,1:CYT,,0.42
51,1:CYT,1:CYT,,0.421
52,1:CYT,4:NUC,+,0.442
53,1:CYT,1:CYT,,0.422
54,1:CYT,1:CYT,,0.417
55,1:CYT,4:NUC,+,0.379
56,1:CYT,1:CYT,,0.408
57,1:CYT,1:CYT,,0.417
58,1:CYT,1:CYT,,0.415
59,1:CYT,1:CYT,,0.409
60,1:CYT,1:CYT,,0.419
61,1:CYT,1:CYT,,0.406
62,1:CYT,1:CYT,,0.413
63,1:CYT,4:NUC,+,0.389
64,1:CYT,1:CYT,,0.348
65,1:CYT,1:CYT,,0.417
66,1:CYT,1:CYT,,0.417
67,1:CYT,1:CYT,,0.428
68,1:CYT,1:CYT,,0.714
69,1:CYT,1:CYT,,0.418
70,1:CYT,1:CYT,,0.435
71,1:CYT,1:CYT,,0.42
72,1:CYT,1:CYT,,0.418
73,1:CYT,1:CYT,,0.42
74,1:CYT,1:CYT,,0.424
75,1:CYT,1:CYT,,0.425
76,1:CYT,1:CYT,,0.421
77,1:CYT,1:CYT,,0.422
78,1:CYT,1:CYT,,0.423
79,1:CYT,1:CYT,,0.417
80,1:CYT,1:CYT,,0.42
81,1:CYT,1:CYT,,0.724
82,1:CYT,4:NUC,+,0.461
83,1:CYT,4:NUC,+,0.412
84,1:CYT,1:CYT,,0.415
85,1:CYT,1:CYT,,0.393
86,1:CYT,1:CYT,,0.419
87,1:CYT,1:CYT,,0.39
88,1:CYT,1:CYT,,0.401
89,1:CYT,1:CYT,,0.431
90,1:CYT,1:CYT,,0.426
91,2:ME3,2:ME3,,0.45
92,2:ME3,2:ME3,,0.416
93,2:ME3,2:ME3,,0.414
94,2:ME3,2:ME3,,0.422
95,2:ME3,2:ME3,,0.457
96,2:ME3,2:ME3,,0.403
97,2:ME3,1:CYT,+,0.424
98,2:ME3,2:ME3,,0.455
99,2:ME3,2:ME3,,0.316
100,2:ME3,2:ME3,,0.435
101,2:ME3,2:ME3,,0.335
102,2:ME3,2:ME3,,0.45
103,2:ME3,2:ME3,,0.354
104,2:ME3,2:ME3,,0.346
105,2:ME3,2:ME3,,0.291
106,2:ME3,2:ME3,,0.413
107,3:MIT,2:ME3,+,0.41
108,3:MIT,2:ME3,+,0.422
109,3:MIT,1:CYT,+,0.397
110,3:MIT,3:MIT,,0.393
111,3:MIT,1:CYT,+,0.417
112,3:MIT,1:CYT,+,0.345
113,3:MIT,3:MIT,,0.385
114,3:MIT,1:CYT,+,0.414
115,3:MIT,2:ME3,+,0.385
116,3:MIT,3:MIT,,0.339
117,3:MIT,4:NUC,+,0.391
118,3:MIT,2:ME3,+,0.443
119,3:MIT,1:CYT,+,0.423
120,3:MIT,3:MIT,,0.392
121,3:MIT,3:MIT,,0.382
122,3:MIT,1:CYT,+,0.364
123,3:MIT,1:CYT,+,0.42
124,3:MIT,3:MIT,,0.384
125,3:MIT,1:CYT,+,0.364
126,3:MIT,1:CYT,+,0.421
127,3:MIT,3:MIT,,0.35
128,3:MIT,1:CYT,+,0.375
129,3:MIT,1:CYT,+,0.416
130,3:MIT,3:MIT,,0.392
1,4:NUC,4:NUC,,0.338
2,4:NUC,1:CYT,+,0.415
3,4:NUC,2:ME3,+,0.338
4,4:NUC,4:NUC,,0.406
5,4:NUC,1:CYT,+,0.391
6,4:NUC,4:NUC,,0.408
7,4:NUC,1:CYT,+,0.412
8,4:NUC,2:ME3,+,0.405
9,4:NUC,1:CYT,+,0.393
10,4:NUC,4:NUC,,0.41
11,4:NUC,1:CYT,+,0.394
12,4:NUC,1:CYT,+,0.403
13,4:NUC,4:NUC,,0.411
14,4:NUC,1:CYT,+,0.379
15,4:NUC,1:CYT,+,0.394
16,4:NUC,1:CYT,+,0.38
17,4:NUC,1:CYT,+,0.393
18,4:NUC,2:ME3,+,0.396
19,4:NUC,4:NUC,,0.399
20,4:NUC,1:CYT,+,0.387
21,4:NUC,4:NUC,,0.415
22,4:NUC,4:NUC,,0.406
23,4:NUC,4:NUC,,0.341
24,4:NUC,4:NUC,,0.383
25,4:NUC,2:ME3,+,0.293
26,4:NUC,1:CYT,+,0.407
27,4:NUC,4:NUC,,0.335
28,4:NUC,1:CYT,+,0.406
29,4:NUC,1:CYT,+,0.418
30,4:NUC,4:NUC,,0.412
31,4:NUC,4:NUC,,0.415
32,4:NUC,4:NUC,,0.409
33,4:NUC,4:NUC,,0.395
34,4:NUC,4:NUC,,0.405
35,4:NUC,1:CYT,+,0.387
36,4:NUC,1:CYT,+,0.384
37,4:NUC,4:NUC,,0.406
38,4:NUC,4:NUC,,0.406
39,4:NUC,4:NUC,,0.407
40,4:NUC,4:NUC,,0.408
41,4:NUC,1:CYT,+,0.412
42,4:NUC,4:NUC,,0.404
43,4:NUC,1:CYT,+,0.408
44,1:CYT,1:CYT,,0.397
45,1:CYT,1:CYT,,0.74
46,1:CYT,4:NUC,+,0.415
47,1:CYT,1:CYT,,0.39
48,1:CYT,1:CYT,,0.393
49,1:CYT,1:CYT,,0.397
50,1:CYT,4:NUC,+,0.403
51,1:CYT,1:CYT,,0.412
52,1:CYT,4:NUC,+,0.411
53,1:CYT,4:NUC,+,0.409
54,1:CYT,1:CYT,,0.41
55,1:CYT,1:CYT,,0.398
56,1:CYT,1:CYT,,0.367
57,1:CYT,1:CYT,,0.394
58,1:CYT,1:CYT,,0.411
59,1:CYT,1:CYT,,0.406
60,1:CYT,1:CYT,,0.403
61,1:CYT,1:CYT,,0.415
62,1:CYT,1:CYT,,0.401
63,1:CYT,1:CYT,,0.413
64,1:CYT,1:CYT,,0.39
65,1:CYT,1:CYT,,0.413
66,1:CYT,1:CYT,,0.413
67,1:CYT,1:CYT,,0.391
68,1:CYT,1:CYT,,0.417
69,1:CYT,1:CYT,,0.406
70,1:CYT,1:CYT,,0.394
71,1:CYT,1:CYT,,0.406
72,1:CYT,1:CYT,,0.346
73,1:CYT,1:CYT,,0.763
74,1:CYT,1:CYT,,0.4
75,1:CYT,1:CYT,,0.4
76,1:CYT,1:CYT,,0.402
77,1:CYT,1:CYT,,0.397
78,1:CYT,1:CYT,,0.408
79,1:CYT,1:CYT,,0.407
80,1:CYT,1:CYT,,0.82
81,1:CYT,4:NUC,+,0.386
82,1:CYT,1:CYT,,0.406
83,1:CYT,4:NUC,+,0.409
84,1:CYT,1:CYT,,0.42
85,1:CYT,4:NUC,+,0.404
86,1:CYT,4:NUC,+,0.403
87,1:CYT,2:ME3,+,0.306
88,1:CYT,1:CYT,,0.409
89,1:CYT,4:NUC,+,0.415
90,2:ME3,2:ME3,,0.396
91,2:ME3,2:ME3,,0.396
92,2:ME3,2:ME3,,0.396
93,2:ME3,2:ME3,,0.409
94,2:ME3,2:ME3,,0.342
95,2:ME3,2:ME3,,0.402
96,2:ME3,2:ME3,,0.406
97,2:ME3,2:ME3,,0.394
98,2:ME3,2:ME3,,0.382
99,2:ME3,2:ME3,,0.404
100,2:ME3,2:ME3,,0.383
101,2:ME3,2:ME3,,0.405
102,2:ME3,2:ME3,,0.4
103,2:ME3,2:ME3,,0.331
104,2:ME3,2:ME3,,0.399
105,2:ME3,2:ME3,,0.383
106,2:ME3,2:ME3,,0.403
107,3:MIT,1:CYT,+,0.412
108,3:MIT,3:MIT,,0.327
109,3:MIT,1:CYT,+,0.312
110,3:MIT,1:CYT,+,0.391
111,3:MIT,1:CYT,+,0.333
112,3:MIT,3:MIT,,0.336
113,3:MIT,1:CYT,+,0.335
114,3:MIT,1:CYT,+,0.338
115,3:MIT,1:CYT,+,0.404
116,3:MIT,3:MIT,,0.338
117,3:MIT,3:MIT,,0.336
118,3:MIT,1:CYT,+,0.382
119,3:MIT,3:MIT,,0.336
120,3:MIT,1:CYT,+,0.414
121,3:MIT,1:CYT,+,0.401
122,3:MIT,4:NUC,+,0.338
123,3:MIT,3:MIT,,0.332
124,3:MIT,3:MIT,,0.338
125,3:MIT,1:CYT,+,0.316
126,3:MIT,1:CYT,+,0.345
127,3:MIT,1:CYT,+,0.359
128,3:MIT,1:CYT,+,0.37
129,3:MIT,3:MIT,,0.333
130,3:MIT,3:MIT,,0.339
1,4:NUC,1:CYT,+,0.39
2,4:NUC,1:CYT,+,0.419
3,4:NUC,1:CYT,+,0.397
4,4:NUC,1:CYT,+,0.399
5,4:NUC,4:NUC,,0.407
6,4:NUC,4:NUC,,0.381
7,4:NUC,4:NUC,,0.387
8,4:NUC,1:CYT,+,0.328
9,4:NUC,4:NUC,,0.444
10,4:NUC,4:NUC,,0.425
11,4:NUC,4:NUC,,0.403
12,4:NUC,4:NUC,,0.425
13,4:NUC,1:CYT,+,0.414
14,4:NUC,4:NUC,,0.431
15,4:NUC,1:CYT,+,0.409
16,4:NUC,4:NUC,,0.42
17,4:NUC,1:CYT,+,0.399
18,4:NUC,4:NUC,,0.436
19,4:NUC,1:CYT,+,0.404
20,4:NUC,4:NUC,,0.414
21,4:NUC,4:NUC,,0.408
22,4:NUC,1:CYT,+,0.369
23,4:NUC,1:CYT,+,0.415
24,4:NUC,1:CYT,+,0.404
25,4:NUC,4:NUC,,0.426
26,4:NUC,1:CYT,+,0.407
27,4:NUC,2:ME3,+,0.322
28,4:NUC,4:NUC,,0.418
29,4:NUC,4:NUC,,0.427
30,4:NUC,1:CYT,+,0.425
31,4:NUC,1:CYT,+,0.389
32,4:NUC,1:CYT,+,0.401
33,4:NUC,1:CYT,+,0.405
34,4:NUC,4:NUC,,0.403
35,4:NUC,4:NUC,,0.427
36,4:NUC,4:NUC,,0.357
37,4:NUC,4:NUC,,0.442
38,4:NUC,1:CYT,+,0.405
39,4:NUC,1:CYT,+,0.336
40,4:NUC,1:CYT,+,0.401
41,4:NUC,4:NUC,,0.401
42,4:NUC,4:NUC,,0.356
43,4:NUC,2:ME3,+,0.331
44,1:CYT,1:CYT,,0.412
45,1:CYT,1:CYT,,0.405
46,1:CYT,4:NUC,+,0.433
47,1:CYT,1:CYT,,0.416
48,1:CYT,4:NUC,+,0.43
49,1:CYT,1:CYT,,0.421
50,1:CYT,1:CYT,,0.424
51,1:CYT,1:CYT,,0.389
52,1:CYT,1:CYT,,0.418
53,1:CYT,1:CYT,,0.395
54,1:CYT,1:CYT,,0.41
55,1:CYT,1:CYT,,0.414
56,1:CYT,1:CYT,,0.412
57,1:CYT,1:CYT,,0.419
58,1:CYT,1:CYT,,0.392
59,1:CYT,1:CYT,,0.388
60,1:CYT,1:CYT,,0.396
61,1:CYT,1:CYT,,0.79
62,1:CYT,4:NUC,+,0.392
63,1:CYT,1:CYT,,0.825
64,1:CYT,4:NUC,+,0.403
65,1:CYT,1:CYT,,0.705
66,1:CYT,1:CYT,,0.398
67,1:CYT,4:NUC,+,0.414
68,1:CYT,1:CYT,,0.419
69,1:CYT,4:NUC,+,0.42
70,1:CYT,1:CYT,,0.368
71,1:CYT,1:CYT,,0.389
72,1:CYT,1:CYT,,0.425
73,1:CYT,1:CYT,,0.326
74,1:CYT,1:CYT,,0.406
75,1:CYT,4:NUC,+,0.397
76,1:CYT,1:CYT,,0.419
77,1:CYT,1:CYT,,0.416
78,1:CYT,1:CYT,,0.4
79,1:CYT,1:CYT,,0.424
80,1:CYT,1:CYT,,0.409
81,1:CYT,1:CYT,,0.424
82,1:CYT,1:CYT,,0.392
83,1:CYT,3:MIT,+,0.36
84,1:CYT,4:NUC,+,0.398
85,1:CYT,1:CYT,,0.407
86,1:CYT,1:CYT,,0.394
87,1:CYT,1:CYT,,0.414
88,1:CYT,1:CYT,,0.423
89,1:CYT,2:ME3,+,0.333
90,2:ME3,2:ME3,,0.371
91,2:ME3,2:ME3,,0.372
92,2:ME3,2:ME3,,0.311
93,2:ME3,2:ME3,,0.293
94,2:ME3,2:ME3,,0.363
95,2:ME3,2:ME3,,0.367
96,2:ME3,2:ME3,,0.389
97,2:ME3,1:CYT,+,0.391
98,2:ME3,1:CYT,+,0.384
99,2:ME3,2:ME3,,0.363
100,2:ME3,4:NUC,+,0.44
101,2:ME3,2:ME3,,0.298
102,2:ME3,2:ME3,,0.374
103,2:ME3,2:ME3,,0.373
104,2:ME3,2:ME3,,0.37
105,2:ME3,2:ME3,,0.302
106,2:ME3,2:ME3,,0.362
107,3:MIT,1:CYT,+,0.419
108,3:MIT,1:CYT,+,0.418
109,3:MIT,1:CYT,+,0.422
110,3:MIT,1:CYT,+,0.409
111,3:MIT,1:CYT,+,0.407
112,3:MIT,3:MIT,,0.366
113,3:MIT,3:MIT,,0.388
114,3:MIT,3:MIT,,0.314
115,3:MIT,3:MIT,,0.358
116,3:MIT,4:NUC,+,0.385
117,3:MIT,1:CYT,+,0.412
118,3:MIT,3:MIT,,0.293
119,3:MIT,1:CYT,+,0.406
120,3:MIT,1:CYT,+,0.263
121,3:MIT,3:MIT,,0.353
122,3:MIT,1:CYT,+,0.39
123,3:MIT,1:CYT,+,0.418
124,3:MIT,1:CYT,+,0.402
125,3:MIT,1:CYT,+,0.338
126,3:MIT,3:MIT,,0.391
127,3:MIT,3:MIT,,0.343
128,3:MIT,1:CYT,+,0.331
129,3:MIT,4:NUC,+,0.42
130,3:MIT,1:CYT,+,0.405
1,4:NUC,1:CYT,+,0.394
2,4:NUC,3:MIT,+,0.333
3,4:NUC,4:NUC,,0.415
4,4:NUC,1:CYT,+,0.385
5,4:NUC,4:NUC,,0.394
6,4:NUC,4:NUC,,0.397
7,4:NUC,3:MIT,+,0.338
8,4:NUC,1:CYT,+,0.398
9,4:NUC,1:CYT,+,0.388
10,4:NUC,1:CYT,+,0.378
11,4:NUC,4:NUC,,0.383
12,4:NUC,4:NUC,,0.387
13,4:NUC,1:CYT,+,0.4
14,4:NUC,4:NUC,,0.405
15,4:NUC,1:CYT,+,0.403
16,4:NUC,3:MIT,+,0.35
17,4:NUC,1:CYT,+,0.372
18,4:NUC,4:NUC,,0.326
19,4:NUC,1:CYT,+,0.337
20,4:NUC,1:CYT,+,0.4
21,4:NUC,1:CYT,+,0.374
22,4:NUC,1:CYT,+,0.381
23,4:NUC,4:NUC,,0.393
24,4:NUC,4:NUC,,0.393
25,4:NUC,4:NUC,,0.382
26,4:NUC,1:CYT,+,0.335
27,4:NUC,1:CYT,+,0.367
28,4:NUC,4:NUC,,0.323
29,4:NUC,4:NUC,,0.389
30,4:NUC,4:NUC,,0.387
31,4:NUC,1:CYT,+,0.398
32,4:NUC,1:CYT,+,0.349
33,4:NUC,4:NUC,,0.377
34,4:NUC,4:NUC,,0.732
35,4:NUC,4:NUC,,0.39
36,4:NUC,1:CYT,+,0.402
37,4:NUC,1:CYT,+,0.382
38,4:NUC,4:NUC,,0.752
39,4:NUC,1:CYT,+,0.403
40,4:NUC,1:CYT,+,0.337
41,4:NUC,1:CYT,+,0.392
42,4:NUC,1:CYT,+,0.405
43,4:NUC,1:CYT,+,0.402
44,1:CYT,1:CYT,,0.406
45,1:CYT,4:NUC,+,0.383
46,1:CYT,1:CYT,,0.326
47,1:CYT,1:CYT,,0.382
48,1:CYT,1:CYT,,0.402
49,1:CYT,1:CYT,,0.394
50,1:CYT,1:CYT,,0.4
51,1:CYT,4:NUC,+,0.381
52,1:CYT,1:CYT,,0.396
53,1:CYT,1:CYT,,0.814
54,1:CYT,1:CYT,,0.402
55,1:CYT,1:CYT,,0.394
56,1:CYT,1:CYT,,0.394
57,1:CYT,1:CYT,,0.327
58,1:CYT,1:CYT,,0.335
59,1:CYT,1:CYT,,0.376
60,1:CYT,1:CYT,,0.394
61,1:CYT,4:NUC,+,0.381
62,1:CYT,1:CYT,,0.376
63,1:CYT,1:CYT,,0.753
64,1:CYT,1:CYT,,0.373
65,1:CYT,1:CYT,,0.376
66,1:CYT,1:CYT,,0.397
67,1:CYT,1:CYT,,0.381
68,1:CYT,1:CYT,,0.4
69,1:CYT,1:CYT,,0.351
70,1:CYT,1:CYT,,0.404
71,1:CYT,1:CYT,,0.386
72,1:CYT,1:CYT,,0.394
73,1:CYT,1:CYT,,0.393
74,1:CYT,1:CYT,,0.749
75,1:CYT,1:CYT,,0.391
76,1:CYT,1:CYT,,0.4
77,1:CYT,1:CYT,,0.404
78,1:CYT,1:CYT,,0.378
79,1:CYT,1:CYT,,0.381
80,1:CYT,1:CYT,,0.403
81,1:CYT,1:CYT,,0.395
82,1:CYT,1:CYT,,0.77
83,1:CYT,1:CYT,,0.396
84,1:CYT,3:MIT,+,0.345
85,1:CYT,4:NUC,+,0.387
86,1:CYT,4:NUC,+,0.404
87,1:CYT,1:CYT,,0.386
88,1:CYT,1:CYT,,0.401
89,1:CYT,1:CYT,,0.388
90,2:ME3,4:NUC,+,0.32
91,2:ME3,2:ME3,,0.277
92,2:ME3,2:ME3,,0.374
93,2:ME3,2:ME3,,0.36
94,2:ME3,2:ME3,,0.355
95,2:ME3,2:ME3,,0.357
96,2:ME3,2:ME3,,0.355
97,2:ME3,2:ME3,,0.383
98,2:ME3,2:ME3,,0.383
99,2:ME3,2:ME3,,0.389
100,2:ME3,2:ME3,,0.395
101,2:ME3,1:CYT,+,0.298
102,2:ME3,4:NUC,+,0.295
103,2:ME3,2:ME3,,0.386
104,2:ME3,1:CYT,+,0.281
105,2:ME3,2:ME3,,0.347
106,2:ME3,2:ME3,,0.361
107,3:MIT,1:CYT,+,0.342
108,3:MIT,1:CYT,+,0.384
109,3:MIT,2:ME3,+,0.342
110,3:MIT,4:NUC,+,0.374
111,3:MIT,1:CYT,+,0.393
112,3:MIT,3:MIT,,0.34
113,3:MIT,1:CYT,+,0.331
114,3:MIT,4:NUC,+,0.39
115,3:MIT,3:MIT,,0.343
116,3:MIT,1:CYT,+,0.395
117,3:MIT,3:MIT,,0.312
118,3:MIT,3:MIT,,0.318
119,3:MIT,1:CYT,+,0.334
120,3:MIT,1:CYT,+,0.361
121,3:MIT,2:ME3,+,0.379
122,3:MIT,3:MIT,,0.35
123,3:MIT,3:MIT,,0.326
124,3:MIT,1:CYT,+,0.407
125,3:MIT,1:CYT,+,0.36
126,3:MIT,3:MIT,,0.267
127,3:MIT,1:CYT,+,0.4
128,3:MIT,1:CYT,+,0.333
129,3:MIT,3:MIT,,0.335
130,3:MIT,2:ME3,+,0.29
1,4:NUC,1:CYT,+,0.386
2,4:NUC,1:CYT,+,0.331
3,4:NUC,4:NUC,,0.399
4,4:NUC,4:NUC,,0.734
5,4:NUC,1:CYT,+,0.376
6,4:NUC,4:NUC,,0.367
7,4:NUC,4:NUC,,0.39
8,4:NUC,4:NUC,,0.399
9,4:NUC,2:ME3,+,0.316
10,4:NUC,4:NUC,,0.428
11,4:NUC,1:CYT,+,0.418
12,4:NUC,1:CYT,+,0.411
13,4:NUC,1:CYT,+,0.407
14,4:NUC,4:NUC,,0.384
15,4:NUC,4:NUC,,0.411
16,4:NUC,1:CYT,+,0.399
17,4:NUC,1:CYT,+,0.403
18,4:NUC,4:NUC,,0.4
19,4:NUC,4:NUC,,0.383
20,4:NUC,1:CYT,+,0.394
21,4:NUC,4:NUC,,0.37
22,4:NUC,1:CYT,+,0.418
23,4:NUC,4:NUC,,0.436
24,4:NUC,4:NUC,,0.399
25,4:NUC,1:CYT,+,0.406
26,4:NUC,4:NUC,,0.421
27,4:NUC,4:NUC,,0.418
28,4:NUC,4:NUC,,0.378
29,4:NUC,4:NUC,,0.428
30,4:NUC,1:CYT,+,0.425
31,4:NUC,1:CYT,+,0.412
32,4:NUC,1:CYT,+,0.417
33,4:NUC,4:NUC,,0.419
34,4:NUC,1:CYT,+,0.389
35,4:NUC,1:CYT,+,0.411
36,4:NUC,2:ME3,+,0.355
37,4:NUC,1:CYT,+,0.415
38,4:NUC,4:NUC,,0.434
39,4:NUC,1:CYT,+,0.397
40,4:NUC,4:NUC,,0.424
41,4:NUC,4:NUC,,0.396
42,4:NUC,2:ME3,+,0.367
43,4:NUC,1:CYT,+,0.419
44,1:CYT,1:CYT,,0.383
45,1:CYT,1:CYT,,0.404
46,1:CYT,1:CYT,,0.404
47,1:CYT,1:CYT,,0.761
48,1:CYT,1:CYT,,0.729
49,1:CYT,1:CYT,,0.405
50,1:CYT,1:CYT,,0.426
51,1:CYT,4:NUC,+,0.428
52,1:CYT,1:CYT,,0.413
53,1:CYT,1:CYT,,0.412
54,1:CYT,4:NUC,+,0.411
55,1:CYT,4:NUC,+,0.413
56,1:CYT,1:CYT,,0.776
57,1:CYT,1:CYT,,0.417
58,1:CYT,1:CYT,,0.415
59,1:CYT,3:MIT,+,0.337
60,1:CYT,1:CYT,,0.392
61,1:CYT,1:CYT,,0.416
62,1:CYT,1:CYT,,0.323
63,1:CYT,1:CYT,,0.409
64,1:CYT,1:CYT,,0.407
65,1:CYT,1:CYT,,0.409
66,1:CYT,1:CYT,,0.414
67,1:CYT,1:CYT,,0.417
68,1:CYT,1:CYT,,0.789
69,1:CYT,1:CYT,,0.758
70,1:CYT,2:ME3,+,0.357
71,1:CYT,1:CYT,,0.419
72,1:CYT,1:CYT,,0.385
73,1:CYT,1:CYT,,0.378
74,1:CYT,2:ME3,+,0.328
75,1:CYT,1:CYT,,0.418
76,1:CYT,1:CYT,,0.398
77,1:CYT,1:CYT,,0.428
78,1:CYT,4:NUC,+,0.395
79,1:CYT,1:CYT,,0.374
80,1:CYT,4:NUC,+,0.374
81,1:CYT,1:CYT,,0.381
82,1:CYT,1:CYT,,0.42
83,1:CYT,1:CYT,,0.402
84,1:CYT,1:CYT,,0.406
85,1:CYT,1:CYT,,0.292
86,1:CYT,1:CYT,,0.414
87,1:CYT,4:NUC,+,0.434
88,1:CYT,4:NUC,+,0.408
89,1:CYT,1:CYT,,0.353
90,2:ME3,2:ME3,,0.372
91,2:ME3,2:ME3,,0.366
92,2:ME3,2:ME3,,0.307
93,2:ME3,2:ME3,,0.354
94,2:ME3,2:ME3,,0.383
95,2:ME3,2:ME3,,0.373
96,2:ME3,4:NUC,+,0.327
97,2:ME3,2:ME3,,0.332
98,2:ME3,1:CYT,+,0.417
99,2:ME3,2:ME3,,0.366
100,2:ME3,1:CYT,+,0.306
101,2:ME3,2:ME3,,0.345
102,2:ME3,2:ME3,,0.291
103,2:ME3,2:ME3,,0.384
104,2:ME3,4:NUC,+,0.3
105,2:ME3,1:CYT,+,0.292
106,3:MIT,1:CYT,+,0.404
107,3:MIT,1:CYT,+,0.424
108,3:MIT,3:MIT,,0.328
109,3:MIT,3:MIT,,0.365
110,3:MIT,3:MIT,,0.35
111,3:MIT,3:MIT,,0.327
112,3:MIT,2:ME3,+,0.308
113,3:MIT,1:CYT,+,0.374
114,3:MIT,3:MIT,,0.334
115,3:MIT,1:CYT,+,0.41
116,3:MIT,1:CYT,+,0.393
117,3:MIT,1:CYT,+,0.332
118,3:MIT,4:NUC,+,0.349
119,3:MIT,1:CYT,+,0.411
120,3:MIT,4:NUC,+,0.368
121,3:MIT,1:CYT,+,0.347
122,3:MIT,1:CYT,+,0.414
123,3:MIT,3:MIT,,0.328
124,3:MIT,3:MIT,,0.352
125,3:MIT,3:MIT,,0.362
126,3:MIT,1:CYT,+,0.406
127,3:MIT,1:CYT,+,0.357
128,3:MIT,1:CYT,+,0.383
129,3:MIT,4:NUC,+,0.348
130,3:MIT,1:CYT,+,0.41
1,4:NUC,1:CYT,+,0.398
2,4:NUC,1:CYT,+,0.416
3,4:NUC,4:NUC,,0.387
4,4:NUC,4:NUC,,0.385
5,4:NUC,4:NUC,,0.391
6,4:NUC,4:NUC,,0.375
7,4:NUC,4:NUC,,0.393
8,4:NUC,2:ME3,+,0.335
9,4:NUC,4:NUC,,0.381
10,4:NUC,4:NUC,,0.406
11,4:NUC,1:CYT,+,0.411
12,4:NUC,1:CYT,+,0.42
13,4:NUC,4:NUC,,0.38
14,4:NUC,1:CYT,+,0.413
15,4:NUC,4:NUC,,0.4
16,4:NUC,1:CYT,+,0.41
17,4:NUC,4:NUC,,0.387
18,4:NUC,4:NUC,,0.394
19,4:NUC,4:NUC,,0.406
20,4:NUC,4:NUC,,0.404
21,4:NUC,4:NUC,,0.391
22,4:NUC,1:CYT,+,0.41
23,4:NUC,1:CYT,+,0.416
24,4:NUC,1:CYT,+,0.398
25,4:NUC,4:NUC,,0.407
26,4:NUC,1:CYT,+,0.402
27,4:NUC,1:CYT,+,0.409
28,4:NUC,1:CYT,+,0.402
29,4:NUC,1:CYT,+,0.409
30,4:NUC,1:CYT,+,0.416
31,4:NUC,1:CYT,+,0.395
32,4:NUC,2:ME3,+,0.346
33,4:NUC,1:CYT,+,0.375
34,4:NUC,4:NUC,,0.395
35,4:NUC,4:NUC,,0.401
36,4:NUC,4:NUC,,0.383
37,4:NUC,1:CYT,+,0.395
38,4:NUC,1:CYT,+,0.412
39,4:NUC,4:NUC,,0.395
40,4:NUC,4:NUC,,0.394
41,4:NUC,4:NUC,,0.353
42,4:NUC,2:ME3,+,0.313
43,4:NUC,1:CYT,+,0.412
44,1:CYT,1:CYT,,0.405
45,1:CYT,1:CYT,,0.385
46,1:CYT,1:CYT,,0.402
47,1:CYT,1:CYT,,0.41
48,1:CYT,4:NUC,+,0.373
49,1:CYT,1:CYT,,0.412
50,1:CYT,1:CYT,,0.381
51,1:CYT,1:CYT,,0.388
52,1:CYT,1:CYT,,0.407
53,1:CYT,1:CYT,,0.406
54,1:CYT,1:CYT,,0.405
55,1:CYT,4:NUC,+,0.393
56,1:CYT,1:CYT,,0.396
57,1:CYT,1:CYT,,0.765
58,1:CYT,1:CYT,,0.413
59,1:CYT,4:NUC,+,0.408
60,1:CYT,4:NUC,+,0.371
61,1:CYT,1:CYT,,0.389
62,1:CYT,4:NUC,+,0.393
63,1:CYT,1:CYT,,0.394
64,1:CYT,1:CYT,,0.416
65,1:CYT,2:ME3,+,0.327
66,1:CYT,1:CYT,,0.407
67,1:CYT,1:CYT,,0.404
68,1:CYT,1:CYT,,0.406
69,1:CYT,1:CYT,,0.387
70,1:CYT,4:NUC,+,0.379
71,1:CYT,4:NUC,+,0.396
72,1:CYT,1:CYT,,0.409
73,1:CYT,1:CYT,,0.396
74,1:CYT,1:CYT,,0.408
75,1:CYT,1:CYT,,0.41
76,1:CYT,1:CYT,,0.405
77,1:CYT,1:CYT,,0.383
78,1:CYT,4:NUC,+,0.38
79,1:CYT,1:CYT,,0.735
80,1:CYT,1:CYT,,0.416
81,1:CYT,1:CYT,,0.409
82,1:CYT,1:CYT,,0.393
83,1:CYT,4:NUC,+,0.389
84,1:CYT,1:CYT,,0.416
85,1:CYT,1:CYT,,0.415
86,1:CYT,1:CYT,,0.411
87,1:CYT,1:CYT,,0.388
88,1:CYT,1:CYT,,0.759
89,1:CYT,1:CYT,,0.413
90,2:ME3,4:NUC,+,0.294
91,2:ME3,4:NUC,+,0.387
92,2:ME3,2:ME3,,0.33
93,2:ME3,2:ME3,,0.349
94,2:ME3,2:ME3,,0.373
95,2:ME3,2:ME3,,0.382
96,2:ME3,2:ME3,,0.376
97,2:ME3,2:ME3,,0.351
98,2:ME3,2:ME3,,0.374
99,2:ME3,4:NUC,+,0.292
100,2:ME3,2:ME3,,0.383
101,2:ME3,2:ME3,,0.384
102,2:ME3,4:NUC,+,0.285
103,2:ME3,2:ME3,,0.368
104,2:ME3,2:ME3,,0.373
105,2:ME3,4:NUC,+,0.309
106,3:MIT,1:CYT,+,0.337
107,3:MIT,4:NUC,+,0.338
108,3:MIT,1:CYT,+,0.41
109,3:MIT,1:CYT,+,0.402
110,3:MIT,3:MIT,,0.334
111,3:MIT,1:CYT,+,0.332
112,3:MIT,4:NUC,+,0.365
113,3:MIT,3:MIT,,0.35
114,3:MIT,3:MIT,,0.366
115,3:MIT,1:CYT,+,0.322
116,3:MIT,3:MIT,,0.362
117,3:MIT,4:NUC,+,0.33
118,3:MIT,1:CYT,+,0.339
119,3:MIT,2:ME3,+,0.278
120,3:MIT,1:CYT,+,0.319
121,3:MIT,1:CYT,+,0.395
122,3:MIT,1:CYT,+,0.337
123,3:MIT,1:CYT,+,0.406
124,3:MIT,1:CYT,+,0.332
125,3:MIT,1:CYT,+,0.337
126,3:MIT,1:CYT,+,0.315
127,3:MIT,4:NUC,+,0.355
128,3:MIT,1:CYT,+,0.407
129,3:MIT,1:CYT,+,0.359
130,3:MIT,1:CYT,+,0.325
1,4:NUC,2:ME3,+,0.346
2,4:NUC,4:NUC,,0.435
3,4:NUC,4:NUC,,0.424
4,4:NUC,1:CYT,+,0.418
5,4:NUC,1:CYT,+,0.398
6,4:NUC,4:NUC,,0.416
7,4:NUC,4:NUC,,0.411
8,4:NUC,1:CYT,+,0.389
9,4:NUC,4:NUC,,0.415
10,4:NUC,4:NUC,,0.433
11,4:NUC,4:NUC,,0.412
12,4:NUC,4:NUC,,0.425
13,4:NUC,4:NUC,,0.44
14,4:NUC,1:CYT,+,0.397
15,4:NUC,1:CYT,+,0.431
16,4:NUC,4:NUC,,0.436
17,4:NUC,4:NUC,,0.757
18,4:NUC,1:CYT,+,0.404
19,4:NUC,1:CYT,+,0.398
20,4:NUC,1:CYT,+,0.431
21,4:NUC,1:CYT,+,0.405
22,4:NUC,4:NUC,,0.433
23,4:NUC,3:MIT,+,0.372
24,4:NUC,1:CYT,+,0.422
25,4:NUC,4:NUC,,0.416
26,4:NUC,4:NUC,,0.399
27,4:NUC,4:NUC,,0.36
28,4:NUC,1:CYT,+,0.431
29,4:NUC,1:CYT,+,0.43
30,4:NUC,4:NUC,,0.408
31,4:NUC,1:CYT,+,0.41
32,4:NUC,4:NUC,,0.421
33,4:NUC,1:CYT,+,0.421
34,4:NUC,3:MIT,+,0.381
35,4:NUC,4:NUC,,0.426
36,4:NUC,1:CYT,+,0.433
37,4:NUC,4:NUC,,0.431
38,4:NUC,4:NUC,,0.424
39,4:NUC,1:CYT,+,0.414
40,4:NUC,4:NUC,,0.409
41,4:NUC,4:NUC,,0.406
42,4:NUC,1:CYT,+,0.433
43,4:NUC,4:NUC,,0.365
44,1:CYT,1:CYT,,0.422
45,1:CYT,1:CYT,,0.414
46,1:CYT,1:CYT,,0.43
47,1:CYT,1:CYT,,0.422
48,1:CYT,1:CYT,,0.423
49,1:CYT,1:CYT,,0.397
50,1:CYT,4:NUC,+,0.399
51,1:CYT,1:CYT,,0.407
52,1:CYT,3:MIT,+,0.342
53,1:CYT,1:CYT,,0.424
54,1:CYT,1:CYT,,0.393
55,1:CYT,4:NUC,+,0.341
56,1:CYT,1:CYT,,0.397
57,1:CYT,1:CYT,,0.436
58,1:CYT,1:CYT,,0.414
59,1:CYT,4:NUC,+,0.402
60,1:CYT,1:CYT,,0.423
61,1:CYT,4:NUC,+,0.404
62,1:CYT,1:CYT,,0.392
63,1:CYT,1:CYT,,0.393
64,1:CYT,1:CYT,,0.426
65,1:CYT,1:CYT,,0.428
66,1:CYT,1:CYT,,0.425
67,1:CYT,1:CYT,,0.413
68,1:CYT,1:CYT,,0.39
69,1:CYT,1:CYT,,0.416
70,1:CYT,4:NUC,+,0.429
71,1:CYT,1:CYT,,0.428
72,1:CYT,1:CYT,,0.811
73,1:CYT,1:CYT,,0.415
74,1:CYT,1:CYT,,0.432
75,1:CYT,1:CYT,,0.411
76,1:CYT,1:CYT,,0.434
77,1:CYT,1:CYT,,0.424
78,1:CYT,1:CYT,,0.39
79,1:CYT,1:CYT,,0.369
80,1:CYT,1:CYT,,0.431
81,1:CYT,1:CYT,,0.41
82,1:CYT,3:MIT,+,0.344
83,1:CYT,1:CYT,,0.431
84,1:CYT,1:CYT,,0.43
85,1:CYT,4:NUC,+,0.404
86,1:CYT,4:NUC,+,0.417
87,1:CYT,1:CYT,,0.4
88,1:CYT,4:NUC,+,0.425
89,1:CYT,1:CYT,,0.423
90,2:ME3,2:ME3,,0.405
91,2:ME3,2:ME3,,0.386
92,2:ME3,2:ME3,,0.358
93,2:ME3,2:ME3,,0.414
94,2:ME3,4:NUC,+,0.39
95,2:ME3,1:CYT,+,0.425
96,2:ME3,2:ME3,,0.402
97,2:ME3,2:ME3,,0.378
98,2:ME3,3:MIT,+,0.311
99,2:ME3,2:ME3,,0.388
100,2:ME3,2:ME3,,0.398
101,2:ME3,2:ME3,,0.386
102,2:ME3,2:ME3,,0.407
103,2:ME3,2:ME3,,0.391
104,2:ME3,2:ME3,,0.352
105,2:ME3,2:ME3,,0.385
106,3:MIT,3:MIT,,0.394
107,3:MIT,3:MIT,,0.404
108,3:MIT,3:MIT,,0.372
109,3:MIT,3:MIT,,0.356
110,3:MIT,3:MIT,,0.346
111,3:MIT,3:MIT,,0.369
112,3:MIT,4:NUC,+,0.324
113,3:MIT,1:CYT,+,0.345
114,3:MIT,1:CYT,+,0.35
115,3:MIT,1:CYT,+,0.349
116,3:MIT,3:MIT,,0.297
117,3:MIT,3:MIT,,0.279
118,3:MIT,3:MIT,,0.407
119,3:MIT,1:CYT,+,0.412
120,3:MIT,3:MIT,,0.418
121,3:MIT,1:CYT,+,0.423
122,3:MIT,1:CYT,+,0.428
123,3:MIT,3:MIT,,0.419
124,3:MIT,4:NUC,+,0.392
125,3:MIT,3:MIT,,0.345
126,3:MIT,1:CYT,+,0.415
127,3:MIT,1:CYT,+,0.407
128,3:MIT,3:MIT,,0.351
129,3:MIT,1:CYT,+,0.438
130,3:MIT,3:MIT,,0.372
1,4:NUC,1:CYT,+,0.414
2,4:NUC,4:NUC,,0.41
3,4:NUC,1:CYT,+,0.414
4,4:NUC,1:CYT,+,0.411
5,4:NUC,1:CYT,+,0.407
6,4:NUC,4:NUC,,0.411
7,4:NUC,1:CYT,+,0.414
8,4:NUC,4:NUC,,0.405
9,4:NUC,1:CYT,+,0.383
10,4:NUC,1:CYT,+,0.369
11,4:NUC,4:NUC,,0.383
12,4:NUC,4:NUC,,0.421
13,4:NUC,1:CYT,+,0.418
14,4:NUC,1:CYT,+,0.412
15,4:NUC,4:NUC,,0.385
16,4:NUC,4:NUC,,0.429
17,4:NUC,4:NUC,,0.426
18,4:NUC,1:CYT,+,0.396
19,4:NUC,1:CYT,+,0.417
20,4:NUC,1:CYT,+,0.408
21,4:NUC,1:CYT,+,0.41
22,4:NUC,1:CYT,+,0.392
23,4:NUC,1:CYT,+,0.405
24,4:NUC,4:NUC,,0.425
25,4:NUC,1:CYT,+,0.413
26,4:NUC,1:CYT,+,0.418
27,4:NUC,1:CYT,+,0.412
28,4:NUC,1:CYT,+,0.41
29,4:NUC,4:NUC,,0.763
30,4:NUC,1:CYT,+,0.415
31,4:NUC,1:CYT,+,0.382
32,4:NUC,4:NUC,,0.422
33,4:NUC,1:CYT,+,0.415
34,4:NUC,1:CYT,+,0.396
35,4:NUC,1:CYT,+,0.395
36,4:NUC,4:NUC,,0.342
37,4:NUC,1:CYT,+,0.398
38,4:NUC,4:NUC,,0.41
39,4:NUC,4:NUC,,0.39
40,4:NUC,4:NUC,,0.344
41,4:NUC,1:CYT,+,0.393
42,4:NUC,1:CYT,+,0.4
43,4:NUC,4:NUC,,0.344
44,1:CYT,1:CYT,,0.417
45,1:CYT,1:CYT,,0.325
46,1:CYT,4:NUC,+,0.429
47,1:CYT,1:CYT,,0.788
48,1:CYT,1:CYT,,0.389
49,1:CYT,1:CYT,,0.416
50,1:CYT,1:CYT,,0.418
51,1:CYT,1:CYT,,0.413
52,1:CYT,4:NUC,+,0.385
53,1:CYT,1:CYT,,0.408
54,1:CYT,1:CYT,,0.739
55,1:CYT,1:CYT,,0.419
56,1:CYT,4:NUC,+,0.384
57,1:CYT,1:CYT,,0.42
58,1:CYT,1:CYT,,0.415
59,1:CYT,1:CYT,,0.415
60,1:CYT,1:CYT,,0.41
61,1:CYT,1:CYT,,0.409
62,1:CYT,1:CYT,,0.398
63,1:CYT,1:CYT,,0.764
64,1:CYT,4:NUC,+,0.386
65,1:CYT,1:CYT,,0.394
66,1:CYT,3:MIT,+,0.337
67,1:CYT,1:CYT,,0.42
68,1:CYT,1:CYT,,0.401
69,1:CYT,4:NUC,+,0.405
70,1:CYT,1:CYT,,0.77
71,1:CYT,1:CYT,,0.415
72,1:CYT,4:NUC,+,0.33
73,1:CYT,4:NUC,+,0.382
74,1:CYT,1:CYT,,0.415
75,1:CYT,1:CYT,,0.42
76,1:CYT,1:CYT,,0.397
77,1:CYT,1:CYT,,0.417
78,1:CYT,2:ME3,+,0.303
79,1:CYT,1:CYT,,0.399
80,1:CYT,2:ME3,+,0.278
81,1:CYT,1:CYT,,0.407
82,1:CYT,4:NUC,+,0.395
83,1:CYT,1:CYT,,0.8
84,1:CYT,1:CYT,,0.702
85,1:CYT,1:CYT,,0.402
86,1:CYT,1:CYT,,0.418
87,1:CYT,1:CYT,,0.412
88,1:CYT,1:CYT,,0.417
89,1:CYT,1:CYT,,0.382
90,2:ME3,4:NUC,+,0.415
91,2:ME3,2:ME3,,0.354
92,2:ME3,2:ME3,,0.373
93,2:ME3,4:NUC,+,0.318
94,2:ME3,2:ME3,,0.307
95,2:ME3,2:ME3,,0.313
96,2:ME3,2:ME3,,0.368
97,2:ME3,2:ME3,,0.363
98,2:ME3,2:ME3,,0.378
99,2:ME3,4:NUC,+,0.408
100,2:ME3,2:ME3,,0.361
101,2:ME3,4:NUC,+,0.397
102,2:ME3,2:ME3,,0.33
103,2:ME3,2:ME3,,0.305
104,2:ME3,2:ME3,,0.35
105,2:ME3,4:NUC,+,0.308
106,3:MIT,3:MIT,,0.361
107,3:MIT,3:MIT,,0.36
108,3:MIT,2:ME3,+,0.322
109,3:MIT,3:MIT,,0.361
110,3:MIT,3:MIT,,0.355
111,3:MIT,3:MIT,,0.361
112,3:MIT,3:MIT,,0.343
113,3:MIT,4:NUC,+,0.387
114,3:MIT,1:CYT,+,0.405
115,3:MIT,3:MIT,,0.338
116,3:MIT,1:CYT,+,0.393
117,3:MIT,2:ME3,+,0.297
118,3:MIT,3:MIT,,0.356
119,3:MIT,3:MIT,,0.338
120,3:MIT,1:CYT,+,0.409
121,3:MIT,3:MIT,,0.341
122,3:MIT,1:CYT,+,0.398
123,3:MIT,3:MIT,,0.341
124,3:MIT,3:MIT,,0.332
125,3:MIT,3:MIT,,0.353
126,3:MIT,3:MIT,,0.327
127,3:MIT,2:ME3,+,0.27
128,3:MIT,2:ME3,+,0.324
129,3:MIT,4:NUC,+,0.332
130,3:MIT,1:CYT,+,0.384
1,4:NUC,1:CYT,+,0.393
2,4:NUC,4:NUC,,0.468
3,4:NUC,1:CYT,+,0.364
4,4:NUC,1:CYT,+,0.427
5,4:NUC,4:NUC,,0.442
6,4:NUC,4:NUC,,0.459
7,4:NUC,1:CYT,+,0.42
8,4:NUC,2:ME3,+,0.295
9,4:NUC,1:CYT,+,0.423
10,4:NUC,4:NUC,,0.473
11,4:NUC,4:NUC,,0.438
12,4:NUC,4:NUC,,0.441
13,4:NUC,4:NUC,,0.429
14,4:NUC,4:NUC,,0.403
15,4:NUC,4:NUC,,0.449
16,4:NUC,4:NUC,,0.383
17,4:NUC,1:CYT,+,0.417
18,4:NUC,1:CYT,+,0.442
19,4:NUC,1:CYT,+,0.423
20,4:NUC,4:NUC,,0.422
21,4:NUC,1:CYT,+,0.436
22,4:NUC,4:NUC,,0.462
23,4:NUC,1:CYT,+,0.425
24,4:NUC,1:CYT,+,0.426
25,4:NUC,4:NUC,,0.452
26,4:NUC,4:NUC,,0.448
27,4:NUC,2:ME3,+,0.325
28,4:NUC,4:NUC,,0.371
29,4:NUC,1:CYT,+,0.426
30,4:NUC,4:NUC,,0.434
31,4:NUC,1:CYT,+,0.411
32,4:NUC,1:CYT,+,0.426
33,4:NUC,3:MIT,+,0.321
34,4:NUC,1:CYT,+,0.425
35,4:NUC,4:NUC,,0.464
36,4:NUC,4:NUC,,0.46
37,4:NUC,1:CYT,+,0.44
38,4:NUC,4:NUC,,0.75
39,4:NUC,1:CYT,+,0.428
40,4:NUC,4:NUC,,0.452
41,4:NUC,4:NUC,,0.41
42,4:NUC,1:CYT,+,0.432
43,1:CYT,4:NUC,+,0.432
44,1:CYT,1:CYT,,0.434
45,1:CYT,1:CYT,,0.419
46,1:CYT,1:CYT,,0.765
47,1:CYT,4:NUC,+,0.4
48,1:CYT,1:CYT,,0.775
49,1:CYT,4:NUC,+,0.443
50,1:CYT,4:NUC,+,0.409
51,1:CYT,1:CYT,,0.426
52,1:CYT,1:CYT,,0.424
53,1:CYT,4:NUC,+,0.47
54,1:CYT,1:CYT,,0.441
55,1:CYT,4:NUC,+,0.401
56,1:CYT,1:CYT,,0.415
57,1:CYT,1:CYT,,0.794
58,1:CYT,1:CYT,,0.354
59,1:CYT,1:CYT,,0.415
60,1:CYT,2:ME3,+,0.282
61,1:CYT,1:CYT,,0.437
62,1:CYT,1:CYT,,0.425
63,1:CYT,4:NUC,+,0.434
64,1:CYT,1:CYT,,0.439
65,1:CYT,4:NUC,+,0.418
66,1:CYT,1:CYT,,0.418
67,1:CYT,1:CYT,,0.441
68,1:CYT,4:NUC,+,0.46
69,1:CYT,1:CYT,,0.434
70,1:CYT,1:CYT,,0.766
71,1:CYT,1:CYT,,0.387
72,1:CYT,4:NUC,+,0.421
73,1:CYT,4:NUC,+,0.353
74,1:CYT,4:NUC,+,0.449
75,1:CYT,1:CYT,,0.442
76,1:CYT,3:MIT,+,0.344
77,1:CYT,4:NUC,+,0.428
78,1:CYT,1:CYT,,0.436
79,1:CYT,1:CYT,,0.42
80,1:CYT,1:CYT,,0.431
81,1:CYT,1:CYT,,0.43
82,1:CYT,1:CYT,,0.438
83,1:CYT,1:CYT,,0.424
84,1:CYT,4:NUC,+,0.433
85,1:CYT,1:CYT,,0.429
86,1:CYT,1:CYT,,0.435
87,1:CYT,1:CYT,,0.426
88,1:CYT,1:CYT,,0.406
89,1:CYT,1:CYT,,0.441
90,2:ME3,2:ME3,,0.417
91,2:ME3,2:ME3,,0.467
92,2:ME3,2:ME3,,0.466
93,2:ME3,2:ME3,,0.461
94,2:ME3,4:NUC,+,0.447
95,2:ME3,2:ME3,,0.405
96,2:ME3,2:ME3,,0.474
97,2:ME3,2:ME3,,0.467
98,2:ME3,2:ME3,,0.458
99,2:ME3,2:ME3,,0.395
100,2:ME3,1:CYT,+,0.421
101,2:ME3,2:ME3,,0.454
102,2:ME3,2:ME3,,0.467
103,2:ME3,2:ME3,,0.426
104,2:ME3,2:ME3,,0.46
105,2:ME3,2:ME3,,0.338
106,3:MIT,4:NUC,+,0.359
107,3:MIT,1:CYT,+,0.349
108,3:MIT,1:CYT,+,0.425
109,3:MIT,1:CYT,+,0.346
110,3:MIT,2:ME3,+,0.432
111,3:MIT,3:MIT,,0.333
112,3:MIT,4:NUC,+,0.381
113,3:MIT,3:MIT,,0.404
114,3:MIT,1:CYT,+,0.435
115,3:MIT,3:MIT,,0.407
116,3:MIT,1:CYT,+,0.385
117,3:MIT,3:MIT,,0.343
118,3:MIT,1:CYT,+,0.385
119,3:MIT,1:CYT,+,0.424
120,3:MIT,1:CYT,+,0.431
121,3:MIT,3:MIT,,0.396
122,3:MIT,1:CYT,+,0.419
123,3:MIT,1:CYT,+,0.411
124,3:MIT,2:ME3,+,0.438
125,3:MIT,4:NUC,+,0.431
126,3:MIT,1:CYT,+,0.403
127,3:MIT,3:MIT,,0.367
128,3:MIT,1:CYT,+,0.404
129,3:MIT,3:MIT,,0.341

